2016-11-18 17:24:35	admin	https://dripclubpw-ibrahimoff.c9users.io/	Error: 	Exception: Unknown Selector operator: '' -- was your selector value properly escaped?  (in /home/ubuntu/workspace/wire/core/Selectors.php line 307)  #0 /home/ubuntu/workspace/wire/core/Selectors.php(351): ProcessWire\Selectors->create('posts', '', '') #1 /home/ubuntu/workspace/wire/core/Selectors.php(128): ProcessWire\Selectors->extractString('posts') #2 /home/ubuntu/workspace/wire/core/Selectors.php(116): ProcessWire\Selectors->setSelectorString('posts') #3 /home/ubuntu/workspace/wire/core/WireArray.php(1394): ProcessWire\Selectors->init('posts') #4 /home/ubuntu/workspace/wire/core/PageArray.php(455): ProcessWire\WireArray->filterData('posts', true) #5 /home/ubuntu/workspace/wire/core/WireArray.php(1500): ProcessWire\PageArray->filterData('posts', true) #6 /home/ubuntu/workspace/wire/core/PageArray.php(481): ProcessWire\WireArray->not('posts') #7 /home/ubuntu/workspace/site/templates/inc/header.php(58): ProcessWire\PageArray->not('posts') #8 /home/ubuntu/workspace/site/templates/home.php(2): require('/home/u
2016-11-18 17:24:44	admin	https://dripclubpw-ibrahimoff.c9users.io/	Error: 	Exception: Unknown Selector operator: '' -- was your selector value properly escaped?  (in /home/ubuntu/workspace/wire/core/Selectors.php line 307)  #0 /home/ubuntu/workspace/wire/core/Selectors.php(351): ProcessWire\Selectors->create('Posts', '', '') #1 /home/ubuntu/workspace/wire/core/Selectors.php(128): ProcessWire\Selectors->extractString('Posts') #2 /home/ubuntu/workspace/wire/core/Selectors.php(116): ProcessWire\Selectors->setSelectorString('Posts') #3 /home/ubuntu/workspace/wire/core/WireArray.php(1394): ProcessWire\Selectors->init('Posts') #4 /home/ubuntu/workspace/wire/core/PageArray.php(455): ProcessWire\WireArray->filterData('Posts', true) #5 /home/ubuntu/workspace/wire/core/WireArray.php(1500): ProcessWire\PageArray->filterData('Posts', true) #6 /home/ubuntu/workspace/wire/core/PageArray.php(481): ProcessWire\WireArray->not('Posts') #7 /home/ubuntu/workspace/site/templates/inc/header.php(58): ProcessWire\PageArray->not('Posts') #8 /home/ubuntu/workspace/site/templates/home.php(2): require('/home/u
2016-11-18 17:26:04	admin	https://dripclubpw-ibrahimoff.c9users.io/	Error: 	Exception: Unknown Selector operator: '' -- was your selector value properly escaped?  (in /home/ubuntu/workspace/wire/core/Selectors.php line 307)  #0 /home/ubuntu/workspace/wire/core/Selectors.php(351): ProcessWire\Selectors->create('posts', '', '') #1 /home/ubuntu/workspace/wire/core/Selectors.php(128): ProcessWire\Selectors->extractString('posts') #2 /home/ubuntu/workspace/wire/core/Selectors.php(116): ProcessWire\Selectors->setSelectorString('posts') #3 /home/ubuntu/workspace/wire/core/WireArray.php(1394): ProcessWire\Selectors->init('posts') #4 /home/ubuntu/workspace/wire/core/PageArray.php(455): ProcessWire\WireArray->filterData('posts', true) #5 /home/ubuntu/workspace/wire/core/WireArray.php(1500): ProcessWire\PageArray->filterData('posts', true) #6 /home/ubuntu/workspace/wire/core/PageArray.php(481): ProcessWire\WireArray->not('posts') #7 /home/ubuntu/workspace/site/templates/inc/header.php(52): ProcessWire\PageArray->not('posts') #8 /home/ubuntu/workspace/site/templates/home.php(2): require('/home/u
2016-11-19 07:57:53	admin	https://dripclubpw-ibrahimoff.c9users.io/en/category-1/subcategory-1.1/item-1/	Error: 	Call to a member function first() on a non-object (line 12 of /home/ubuntu/workspace/site/templates/item.php)
2016-11-19 07:59:26	admin	https://dripclubpw-ibrahimoff.c9users.io/en/category-1/subcategory-1.1/item-1/	Error: 	Allowed memory size of 134217728 bytes exhausted (tried to allocate 125829120 bytes) (line 10 of /home/ubuntu/workspace/site/templates/item.php)
2016-11-19 08:00:11	admin	https://dripclubpw-ibrahimoff.c9users.io/en/category-1/subcategory-1.1/item-1/	Error: 	Allowed memory size of 134217728 bytes exhausted (tried to allocate 125829120 bytes) (line 10 of /home/ubuntu/workspace/site/templates/item.php)
2016-11-19 08:02:20	admin	https://dripclubpw-ibrahimoff.c9users.io/en/category-1/subcategory-1.1/item-1/	Parse Error: 	syntax error, unexpected 'echo' (T_ECHO) (line 10 of /home/ubuntu/workspace/site/templates/item.php)
2016-11-19 09:46:18	admin	https://dripclubpw-ibrahimoff.c9users.io/	Error: 	Allowed memory size of 134217728 bytes exhausted (tried to allocate 126091264 bytes) (line 87 of /home/ubuntu/workspace/site/templates/inc/header.php)
2016-11-19 09:46:21	admin	https://dripclubpw-ibrahimoff.c9users.io/	Error: 	Allowed memory size of 134217728 bytes exhausted (tried to allocate 126091264 bytes) (line 87 of /home/ubuntu/workspace/site/templates/inc/header.php)
2016-11-19 09:46:31	admin	https://dripclubpw-ibrahimoff.c9users.io/	Error: 	Cannot use object of type ProcessWire\Languages as array (line 87 of /home/ubuntu/workspace/site/templates/inc/header.php)
2016-11-19 10:00:52	admin	https://dripclubpw-ibrahimoff.c9users.io/en/category-1/subcategory-1.1/	Error: 	Exception: Method Page::not does not exist or is not callable in this context (in /home/ubuntu/workspace/wire/core/Wire.php line 476)  #0 /home/ubuntu/workspace/wire/core/Page.php(1481): ProcessWire\Wire->___callUnknown('not', Array) #1 [internal function]: ProcessWire\Page->___callUnknown('not', Array) #2 /home/ubuntu/workspace/wire/core/Wire.php(374): call_user_func_array(Array, Array) #3 /home/ubuntu/workspace/wire/core/WireHooks.php(549): ProcessWire\Wire->_callMethod('___callUnknown', Array) #4 /home/ubuntu/workspace/wire/core/Wire.php(399): ProcessWire\WireHooks->runHooks(Object(ProcessWire\Page), 'callUnknown', Array) #5 /home/ubuntu/workspace/wire/core/Wire.php(402): ProcessWire\Wire->__call('callUnknown', Array) #6 /home/ubuntu/workspace/wire/core/Wire.php(402): ProcessWire\Page->callUnknown('not', Array) #7 /home/ubuntu/workspace/site/templates/inc/header.php(78): ProcessWire\Wire->__call('not', Array) #8 /home/ubuntu/workspace/site/templates/inc/header.php(78): ProcessWire\Page->not('template=home'
2016-11-19 10:01:02	admin	https://dripclubpw-ibrahimoff.c9users.io/en/category-1/subcategory-1.1/	Error: 	Call to a member function not() on a non-object (line 78 of /home/ubuntu/workspace/site/templates/inc/header.php)
2016-11-19 10:16:38	admin	https://dripclubpw-ibrahimoff.c9users.io/	Error: 	Exception: Method Page::getDefaultLanguage does not exist or is not callable in this context (in /home/ubuntu/workspace/wire/core/Wire.php line 476)  #0 /home/ubuntu/workspace/wire/core/Page.php(1481): ProcessWire\Wire->___callUnknown('getDefaultLangu...', Array) #1 [internal function]: ProcessWire\Page->___callUnknown('getDefaultLangu...', Array) #2 /home/ubuntu/workspace/wire/core/Wire.php(374): call_user_func_array(Array, Array) #3 /home/ubuntu/workspace/wire/core/WireHooks.php(549): ProcessWire\Wire->_callMethod('___callUnknown', Array) #4 /home/ubuntu/workspace/wire/core/Wire.php(399): ProcessWire\WireHooks->runHooks(Object(ProcessWire\Page), 'callUnknown', Array) #5 /home/ubuntu/workspace/wire/core/Wire.php(402): ProcessWire\Wire->__call('callUnknown', Array) #6 /home/ubuntu/workspace/wire/core/Wire.php(402): ProcessWire\Page->callUnknown('getDefaultLangu...', Array) #7 /home/ubuntu/workspace/site/templates/home.php(10): ProcessWire\Wire->__call('getDefaultLangu...', Array) #8 /home/ubuntu/workspace/sit
2016-11-19 10:36:37	admin	https://dripclubpw-ibrahimoff.c9users.io/	Error: 	Call to undefined function _x() (line 2 of /home/ubuntu/workspace/site/templates/inc/header.php)
2016-11-19 10:37:06	admin	https://dripclubpw-ibrahimoff.c9users.io/	Error: 	Call to undefined function __x() (line 2 of /home/ubuntu/workspace/site/templates/inc/header.php)
2016-11-19 10:37:34	admin	https://dripclubpw-ibrahimoff.c9users.io/	Error: 	Call to undefined function _x() (line 2 of /home/ubuntu/workspace/site/templates/inc/header.php)
2016-11-19 11:54:12	admin	https://dripclubpw-ibrahimoff.c9users.io/pw-admin/module/	Error: 	Class '\ProcessWire\SiteLanguage' not found (line 524 of /home/ubuntu/workspace/wire/core/Modules.php)
2016-11-19 12:11:15	admin	https://dripclubpw-ibrahimoff.c9users.io/	Error: 	Exception: Method Page::hello does not exist or is not callable in this context (in /home/ubuntu/workspace/wire/core/Wire.php line 476)  #0 /home/ubuntu/workspace/wire/core/Page.php(1481): ProcessWire\Wire->___callUnknown('hello', Array) #1 [internal function]: ProcessWire\Page->___callUnknown('hello', Array) #2 /home/ubuntu/workspace/wire/core/Wire.php(374): call_user_func_array(Array, Array) #3 /home/ubuntu/workspace/wire/core/WireHooks.php(549): ProcessWire\Wire->_callMethod('___callUnknown', Array) #4 /home/ubuntu/workspace/wire/core/Wire.php(399): ProcessWire\WireHooks->runHooks(Object(ProcessWire\Page), 'callUnknown', Array) #5 /home/ubuntu/workspace/wire/core/Wire.php(402): ProcessWire\Wire->__call('callUnknown', Array) #6 /home/ubuntu/workspace/wire/core/Wire.php(402): ProcessWire\Page->callUnknown('hello', Array) #7 /home/ubuntu/workspace/site/templates/home.php(9): ProcessWire\Wire->__call('hello', Array) #8 /home/ubuntu/workspace/site/templates/home.php(9): ProcessWire\Page->hello() #9 /home/ubuntu
2016-11-19 12:12:58	admin	https://dripclubpw-ibrahimoff.c9users.io/pw-admin/module/	Error: 	Call to a member function get() on a non-object (line 29 of /home/ubuntu/workspace/site/modules/SiteLanguage/SiteLanguage.module)
2016-11-19 12:13:53	admin	https://dripclubpw-ibrahimoff.c9users.io/pw-admin/module/	Error: 	Call to a member function add() on a non-object (line 32 of /home/ubuntu/workspace/site/modules/SiteLanguage/SiteLanguage.module)
2016-11-19 12:23:13	admin	https://dripclubpw-ibrahimoff.c9users.io/pw-admin/module/	Error: 	Allowed memory size of 134217728 bytes exhausted (tried to allocate 125042688 bytes) (line 23 of /home/ubuntu/workspace/site/modules/SiteLanguage/SiteLanguage.module)
2016-11-19 12:28:06	?	https://dripclubpw-ibrahimoff.c9users.io/?/	Parse Error: 	syntax error, unexpected 'public' (T_PUBLIC) (line 19 of /home/ubuntu/workspace/site/modules/SiteLanguage/SiteLanguage.module)
2016-11-19 12:28:07	?	https://dripclubpw-ibrahimoff.c9users.io/?/	Parse Error: 	syntax error, unexpected 'public' (T_PUBLIC) (line 19 of /home/ubuntu/workspace/site/modules/SiteLanguage/SiteLanguage.module)
2016-11-19 12:28:14	?	https://dripclubpw-ibrahimoff.c9users.io/?/	Parse Error: 	syntax error, unexpected '}' (line 18 of /home/ubuntu/workspace/site/modules/SiteLanguage/SiteLanguage.module)
2016-11-19 12:44:00	admin	https://dripclubpw-ibrahimoff.c9users.io/?/	Error: 	Call to a member function getLanguageValue() on a non-object (line 19 of /home/ubuntu/workspace/site/modules/SiteLanguage/SiteLanguage.module)
2016-11-19 12:45:43	admin	https://dripclubpw-ibrahimoff.c9users.io/?/	Error: 	Call to a member function getLanguageValue() on a non-object (line 19 of /home/ubuntu/workspace/site/modules/SiteLanguage/SiteLanguage.module)
2016-11-19 12:52:09	admin	https://dripclubpw-ibrahimoff.c9users.io/?/	Error: 	Call to a member function localUrl() on a non-object (line 21 of /home/ubuntu/workspace/site/modules/SiteLanguage/SiteLanguage.module)
2016-11-19 12:52:18	admin	https://dripclubpw-ibrahimoff.c9users.io/?/	Error: 	Call to a member function localUrl() on a non-object (line 21 of /home/ubuntu/workspace/site/modules/SiteLanguage/SiteLanguage.module)
2016-11-19 12:53:53	admin	https://dripclubpw-ibrahimoff.c9users.io/?/	Error: 	Call to a member function localUrl() on a non-object (line 22 of /home/ubuntu/workspace/site/modules/SiteLanguage/SiteLanguage.module)
2016-11-19 12:54:30	admin	https://dripclubpw-ibrahimoff.c9users.io/?/	Error: 	Call to a member function localUrl() on a non-object (line 21 of /home/ubuntu/workspace/site/modules/SiteLanguage/SiteLanguage.module)
2016-11-19 12:59:41	admin	https://dripclubpw-ibrahimoff.c9users.io/?/	Error: 	Call to undefined method ProcessWire\Page::localUrl() (line 22 of /home/ubuntu/workspace/site/modules/SiteLanguage/SiteLanguage.module)
2016-11-19 13:04:44	admin	https://dripclubpw-ibrahimoff.c9users.io/?/	Recoverable Fatal Error: 	Argument 1 passed to ProcessWire\Pages::__construct() must be an instance of ProcessWire\ProcessWire, none given, called in /home/ubuntu/workspace/site/modules/SiteLanguage/SiteLanguage.module on line 22 and defined (line 139 of /home/ubuntu/workspace/wire/core/Pages.php)
2016-11-19 13:08:53	?	https://dripclubpw-ibrahimoff.c9users.io/?/	Parse Error: 	syntax error, unexpected '}' (line 32 of /home/ubuntu/workspace/site/modules/SiteLanguage/SiteLanguage.module)
2016-11-19 13:09:09	admin	https://dripclubpw-ibrahimoff.c9users.io/?/	Error: 	Call to a member function addHookBefore() on a non-object (line 30 of /home/ubuntu/workspace/site/modules/SiteLanguage/SiteLanguage.module)
2016-11-19 13:09:45	admin	https://dripclubpw-ibrahimoff.c9users.io/?/	Error: 	Call to a member function addHookBefore() on a non-object (line 30 of /home/ubuntu/workspace/site/modules/SiteLanguage/SiteLanguage.module)
2016-11-19 13:12:36	admin	https://dripclubpw-ibrahimoff.c9users.io/	Recoverable Fatal Error: 	Argument 1 passed to ProcessWire\Pages::__construct() must be an instance of ProcessWire\ProcessWire, none given, called in /home/ubuntu/workspace/site/modules/SiteLanguage/SiteLanguage.module on line 23 and defined (line 139 of /home/ubuntu/workspace/wire/core/Pages.php)
2016-11-19 13:15:39	admin	https://dripclubpw-ibrahimoff.c9users.io/	Error: 	Call to undefined function \ProcessWire\getDef() (line 625 of /home/ubuntu/workspace/wire/core/WireHooks.php)
2016-11-19 13:16:38	admin	https://dripclubpw-ibrahimoff.c9users.io/?/	Error: 	Call to a member function localUrl() on a non-object (line 23 of /home/ubuntu/workspace/site/modules/SiteLanguage/SiteLanguage.module)
2016-11-19 13:17:16	admin	https://dripclubpw-ibrahimoff.c9users.io/?/	Error: 	Call to undefined method ProcessWire\Page::localUrl() (line 29 of /home/ubuntu/workspace/site/modules/SiteLanguage/SiteLanguage.module)
2016-11-19 13:19:26	admin	https://dripclubpw-ibrahimoff.c9users.io/	Error: 	Exception: Method ProcessWire\Page::___render() does not exist (in /home/ubuntu/workspace/wire/core/HookEvent.php line 180)  #0 /home/ubuntu/workspace/wire/core/HookEvent.php(180): ReflectionMethod->__construct(Object(ProcessWire\Page), '___render') #1 /home/ubuntu/workspace/wire/core/HookEvent.php(115): ProcessWire\HookEvent->getArgumentNames() #2 /home/ubuntu/workspace/wire/core/HookEvent.php(91): ProcessWire\HookEvent->argumentsByName('page') #3 /home/ubuntu/workspace/site/modules/SiteLanguage/SiteLanguage.module(21): ProcessWire\HookEvent->arguments('page') #4 /home/ubuntu/workspace/wire/core/WireHooks.php(629): ProcessWire\SiteLanguage->getDef(Object(ProcessWire\HookEvent)) #5 /home/ubuntu/workspace/wire/core/Wire.php(399): ProcessWire\WireHooks->runHooks(Object(ProcessWire\Page), 'render', Array) #6 /home/ubuntu/workspace/wire/modules/Process/ProcessPageView.module(205): ProcessWire\Wire->__call('render', Array) #7 /home/ubuntu/workspace/wire/modules/Process/ProcessPageView.module(205): ProcessWire\Page
2016-11-19 13:20:18	admin	https://dripclubpw-ibrahimoff.c9users.io/	Error: 	Exception: Method ProcessWire\Page::___render() does not exist (in /home/ubuntu/workspace/wire/core/HookEvent.php line 180)  #0 /home/ubuntu/workspace/wire/core/HookEvent.php(180): ReflectionMethod->__construct(Object(ProcessWire\Page), '___render') #1 /home/ubuntu/workspace/wire/core/HookEvent.php(115): ProcessWire\HookEvent->getArgumentNames() #2 /home/ubuntu/workspace/wire/core/HookEvent.php(91): ProcessWire\HookEvent->argumentsByName('page') #3 /home/ubuntu/workspace/site/modules/SiteLanguage/SiteLanguage.module(17): ProcessWire\HookEvent->arguments('page') #4 /home/ubuntu/workspace/wire/core/WireHooks.php(629): ProcessWire\SiteLanguage->getDef(Object(ProcessWire\HookEvent)) #5 /home/ubuntu/workspace/wire/core/Wire.php(399): ProcessWire\WireHooks->runHooks(Object(ProcessWire\Page), 'render', Array) #6 /home/ubuntu/workspace/wire/modules/Process/ProcessPageView.module(205): ProcessWire\Wire->__call('render', Array) #7 /home/ubuntu/workspace/wire/modules/Process/ProcessPageView.module(205): ProcessWire\Page
2016-11-19 13:24:57	admin	https://dripclubpw-ibrahimoff.c9users.io/	Error: 	Call to a member function getDef() on a non-object (line 29 of /home/ubuntu/workspace/site/modules/SiteLanguage/SiteLanguage.module)
2016-11-19 13:26:43	admin	https://dripclubpw-ibrahimoff.c9users.io/	Error: 	Call to undefined function ProcessWire\getDef() (line 28 of /home/ubuntu/workspace/site/modules/SiteLanguage/SiteLanguage.module)
2016-11-19 13:32:36	admin	https://dripclubpw-ibrahimoff.c9users.io/	Error: 	Exception: Method SiteLanguage::getDef does not exist or is not callable in this context (in /home/ubuntu/workspace/wire/core/Wire.php line 476)  #0 [internal function]: ProcessWire\Wire->___callUnknown('getDef', Array) #1 /home/ubuntu/workspace/wire/core/Wire.php(374): call_user_func_array(Array, Array) #2 /home/ubuntu/workspace/wire/core/WireHooks.php(549): ProcessWire\Wire->_callMethod('___callUnknown', Array) #3 /home/ubuntu/workspace/wire/core/Wire.php(399): ProcessWire\WireHooks->runHooks(Object(ProcessWire\SiteLanguage), 'callUnknown', Array) #4 /home/ubuntu/workspace/wire/core/Wire.php(402): ProcessWire\Wire->__call('callUnknown', Array) #5 /home/ubuntu/workspace/wire/core/Wire.php(402): ProcessWire\SiteLanguage->callUnknown('getDef', Array) #6 [internal function]: ProcessWire\Wire->__call('getDef', Array) #7 [internal function]: ProcessWire\SiteLanguage->getDef(Object(ProcessWire\HookEvent)) #8 /home/ubuntu/workspace/wire/core/Wire.php(374): call_user_func_array(Array, Array) #9 /home/ubuntu/workspac
2016-11-19 13:37:44	admin	https://dripclubpw-ibrahimoff.c9users.io/	Error: 	Call to a member function redirect() on a non-object (line 22 of /home/ubuntu/workspace/site/modules/SiteLanguage/SiteLanguage.module)
2016-11-19 13:50:50	admin	https://dripclubpw-ibrahimoff.c9users.io/pw-admin/access/users/	Error: 	Call to undefined function ProcessWire\is_set() (line 21 of /home/ubuntu/workspace/site/modules/SiteLanguage/SiteLanguage.module)
2016-11-19 13:50:51	admin	https://dripclubpw-ibrahimoff.c9users.io/ru/	Error: 	Call to undefined function ProcessWire\is_set() (line 21 of /home/ubuntu/workspace/site/modules/SiteLanguage/SiteLanguage.module)
2016-11-19 13:51:06	?	https://dripclubpw-ibrahimoff.c9users.io/?/	Compile Error: 	Cannot use isset() on the result of a function call (you can use "null !== func()" instead) (line 21 of /home/ubuntu/workspace/site/modules/SiteLanguage/SiteLanguage.module)
2016-11-19 13:51:32	admin	https://dripclubpw-ibrahimoff.c9users.io/ru/	Error: 	Call to a member function get() on a non-object (line 21 of /home/ubuntu/workspace/site/modules/SiteLanguage/SiteLanguage.module)
2016-11-19 14:35:15	admin	https://dripclubpw-ibrahimoff.c9users.io/?/	Error: 	Call to a member function find() on a non-object (line 31 of /home/ubuntu/workspace/site/modules/SiteLanguage/SiteLanguage.module)
2016-11-19 15:17:20	?	https://dripclubpw-ibrahimoff.c9users.io/?/	Parse Error: 	syntax error, unexpected '}' (line 21 of /home/ubuntu/workspace/site/modules/SiteLanguage/SiteLanguage.module)
2016-11-19 15:17:21	?	https://dripclubpw-ibrahimoff.c9users.io/?/	Parse Error: 	syntax error, unexpected '}' (line 21 of /home/ubuntu/workspace/site/modules/SiteLanguage/SiteLanguage.module)
2016-11-19 15:28:01	guest	https://dripclubpw-ibrahimoff.c9users.io/	Error: 	Call to a member function get() on a non-object (line 123 of /home/ubuntu/workspace/site/templates/_func.php)
2016-11-19 15:28:04	guest	https://dripclubpw-ibrahimoff.c9users.io/	Error: 	Call to a member function get() on a non-object (line 123 of /home/ubuntu/workspace/site/templates/_func.php)
2016-11-19 15:28:12	guest	https://dripclubpw-ibrahimoff.c9users.io/	Error: 	Call to a member function get() on a non-object (line 123 of /home/ubuntu/workspace/site/templates/_func.php)
2016-11-19 15:28:18	guest	https://dripclubpw-ibrahimoff.c9users.io/	Error: 	Call to a member function get() on a non-object (line 123 of /home/ubuntu/workspace/site/templates/_func.php)
2016-11-19 15:55:19	admin	https://dripclubpw-ibrahimoff.c9users.io/	Recoverable Fatal Error: 	Argument 2 passed to ProcessWire\LanguageSupportPageNames::getPagePath() must be an instance of ProcessWire\Language, instance of ProcessWire\NullPage given, called in /home/ubuntu/workspace/wire/modules/LanguageSupport/LanguageSupportPageNames.module on line 607 and defined (line 327 of /home/ubuntu/workspace/wire/modules/LanguageSupport/LanguageSupportPageNames.module)
2016-11-19 15:56:05	admin	https://dripclubpw-ibrahimoff.c9users.io/	Recoverable Fatal Error: 	Argument 2 passed to ProcessWire\LanguageSupportPageNames::getPagePath() must be an instance of ProcessWire\Language, instance of ProcessWire\NullPage given, called in /home/ubuntu/workspace/wire/modules/LanguageSupport/LanguageSupportPageNames.module on line 607 and defined (line 327 of /home/ubuntu/workspace/wire/modules/LanguageSupport/LanguageSupportPageNames.module)
2016-11-19 15:57:00	admin	https://dripclubpw-ibrahimoff.c9users.io/	Recoverable Fatal Error: 	Argument 2 passed to ProcessWire\LanguageSupportPageNames::getPagePath() must be an instance of ProcessWire\Language, instance of ProcessWire\NullPage given, called in /home/ubuntu/workspace/wire/modules/LanguageSupport/LanguageSupportPageNames.module on line 607 and defined (line 327 of /home/ubuntu/workspace/wire/modules/LanguageSupport/LanguageSupportPageNames.module)
2016-11-19 15:57:22	admin	https://dripclubpw-ibrahimoff.c9users.io/	Recoverable Fatal Error: 	Argument 2 passed to ProcessWire\LanguageSupportPageNames::getPagePath() must be an instance of ProcessWire\Language, instance of ProcessWire\NullPage given, called in /home/ubuntu/workspace/wire/modules/LanguageSupport/LanguageSupportPageNames.module on line 607 and defined (line 327 of /home/ubuntu/workspace/wire/modules/LanguageSupport/LanguageSupportPageNames.module)
2016-11-19 16:50:12	admin	https://dripclubpw-ibrahimoff.c9users.io/ru/	Recoverable Fatal Error: 	Argument 1 passed to ProcessWire\Pages::___delete() must be an instance of ProcessWire\Page, string given (line 486 of /home/ubuntu/workspace/wire/core/Pages.php)
2016-11-19 16:50:40	admin	https://dripclubpw-ibrahimoff.c9users.io/ru/	Error: 	Exception: This page may not be deleted (in /home/ubuntu/workspace/wire/core/PagesEditor.php line 981)  #0 /home/ubuntu/workspace/wire/core/Pages.php(487): ProcessWire\PagesEditor->delete(Object(ProcessWire\Language), false, Array) #1 [internal function]: ProcessWire\Pages->___delete(Object(ProcessWire\Language)) #2 /home/ubuntu/workspace/wire/core/Wire.php(374): call_user_func_array(Array, Array) #3 /home/ubuntu/workspace/wire/core/WireHooks.php(549): ProcessWire\Wire->_callMethod('___delete', Array) #4 /home/ubuntu/workspace/wire/core/Wire.php(399): ProcessWire\WireHooks->runHooks(Object(ProcessWire\Pages), 'delete', Array) #5 /home/ubuntu/workspace/site/modules/SiteLanguage/SiteLanguage.module(20): ProcessWire\Wire->__call('delete', Array) #6 /home/ubuntu/workspace/site/modules/SiteLanguage/SiteLanguage.module(20): ProcessWire\Pages->delete(Object(ProcessWire\Language)) #7 /home/ubuntu/workspace/wire/core/WireHooks.php(629): ProcessWire\SiteLanguage->getDef(Object(ProcessWire\HookEvent)) #8 /home/ubuntu/wo
2016-11-19 17:24:58	admin	https://dripclubpw-ibrahimoff.c9users.io/en/	Recoverable Fatal Error: 	Argument 2 passed to ProcessWire\LanguageSupportPageNames::getPagePath() must be an instance of ProcessWire\Language, instance of ProcessWire\NullPage given, called in /home/ubuntu/workspace/wire/modules/LanguageSupport/LanguageSupportPageNames.module on line 607 and defined (line 327 of /home/ubuntu/workspace/wire/modules/LanguageSupport/LanguageSupportPageNames.module)
2016-11-19 17:25:45	admin	https://dripclubpw-ibrahimoff.c9users.io/en/	Recoverable Fatal Error: 	Argument 2 passed to ProcessWire\LanguageSupportPageNames::getPagePath() must be an instance of ProcessWire\Language, instance of ProcessWire\NullPage given, called in /home/ubuntu/workspace/wire/modules/LanguageSupport/LanguageSupportPageNames.module on line 607 and defined (line 327 of /home/ubuntu/workspace/wire/modules/LanguageSupport/LanguageSupportPageNames.module)
2016-11-19 17:25:47	admin	https://dripclubpw-ibrahimoff.c9users.io/en/	Recoverable Fatal Error: 	Argument 2 passed to ProcessWire\LanguageSupportPageNames::getPagePath() must be an instance of ProcessWire\Language, instance of ProcessWire\NullPage given, called in /home/ubuntu/workspace/wire/modules/LanguageSupport/LanguageSupportPageNames.module on line 607 and defined (line 327 of /home/ubuntu/workspace/wire/modules/LanguageSupport/LanguageSupportPageNames.module)
2016-11-19 17:26:10	admin	https://dripclubpw-ibrahimoff.c9users.io/en/	Recoverable Fatal Error: 	Argument 2 passed to ProcessWire\LanguageSupportPageNames::getPagePath() must be an instance of ProcessWire\Language, instance of ProcessWire\NullPage given, called in /home/ubuntu/workspace/wire/modules/LanguageSupport/LanguageSupportPageNames.module on line 607 and defined (line 327 of /home/ubuntu/workspace/wire/modules/LanguageSupport/LanguageSupportPageNames.module)
2016-11-19 17:26:39	admin	https://dripclubpw-ibrahimoff.c9users.io/en/	Recoverable Fatal Error: 	Argument 2 passed to ProcessWire\LanguageSupportPageNames::getPagePath() must be an instance of ProcessWire\Language, instance of ProcessWire\NullPage given, called in /home/ubuntu/workspace/wire/modules/LanguageSupport/LanguageSupportPageNames.module on line 607 and defined (line 327 of /home/ubuntu/workspace/wire/modules/LanguageSupport/LanguageSupportPageNames.module)
2016-11-19 17:26:41	admin	https://dripclubpw-ibrahimoff.c9users.io/en/	Recoverable Fatal Error: 	Argument 2 passed to ProcessWire\LanguageSupportPageNames::getPagePath() must be an instance of ProcessWire\Language, instance of ProcessWire\NullPage given, called in /home/ubuntu/workspace/wire/modules/LanguageSupport/LanguageSupportPageNames.module on line 607 and defined (line 327 of /home/ubuntu/workspace/wire/modules/LanguageSupport/LanguageSupportPageNames.module)
2016-11-19 17:28:05	admin	https://dripclubpw-ibrahimoff.c9users.io/en/	Recoverable Fatal Error: 	Argument 2 passed to ProcessWire\LanguageSupportPageNames::getPagePath() must be an instance of ProcessWire\Language, instance of ProcessWire\NullPage given, called in /home/ubuntu/workspace/wire/modules/LanguageSupport/LanguageSupportPageNames.module on line 607 and defined (line 327 of /home/ubuntu/workspace/wire/modules/LanguageSupport/LanguageSupportPageNames.module)
2016-11-19 17:28:36	admin	https://dripclubpw-ibrahimoff.c9users.io/en/	Error: 	Exception: Method Languages::eq does not exist or is not callable in this context (in /home/ubuntu/workspace/wire/core/Wire.php line 476)  #0 [internal function]: ProcessWire\Wire->___callUnknown('eq', Array) #1 /home/ubuntu/workspace/wire/core/Wire.php(374): call_user_func_array(Array, Array) #2 /home/ubuntu/workspace/wire/core/WireHooks.php(549): ProcessWire\Wire->_callMethod('___callUnknown', Array) #3 /home/ubuntu/workspace/wire/core/Wire.php(399): ProcessWire\WireHooks->runHooks(Object(ProcessWire\Languages), 'callUnknown', Array) #4 /home/ubuntu/workspace/wire/core/Wire.php(402): ProcessWire\Wire->__call('callUnknown', Array) #5 /home/ubuntu/workspace/wire/core/Wire.php(402): ProcessWire\Languages->callUnknown('eq', Array) #6 /home/ubuntu/workspace/site/assets/cache/FileCompiler/site/modules/LanguageDefault/LanguageDefault.module(36): ProcessWire\Wire->__call('eq', Array) #7 /home/ubuntu/workspace/site/assets/cache/FileCompiler/site/modules/LanguageDefault/LanguageDefault.module(36): ProcessWire\Languag
2016-11-19 17:30:08	admin	https://dripclubpw-ibrahimoff.c9users.io/en/	Error: 	Exception: Method Languages::eq does not exist or is not callable in this context (in /home/ubuntu/workspace/wire/core/Wire.php line 476)  #0 [internal function]: ProcessWire\Wire->___callUnknown('eq', Array) #1 /home/ubuntu/workspace/wire/core/Wire.php(374): call_user_func_array(Array, Array) #2 /home/ubuntu/workspace/wire/core/WireHooks.php(549): ProcessWire\Wire->_callMethod('___callUnknown', Array) #3 /home/ubuntu/workspace/wire/core/Wire.php(399): ProcessWire\WireHooks->runHooks(Object(ProcessWire\Languages), 'callUnknown', Array) #4 /home/ubuntu/workspace/wire/core/Wire.php(402): ProcessWire\Wire->__call('callUnknown', Array) #5 /home/ubuntu/workspace/wire/core/Wire.php(402): ProcessWire\Languages->callUnknown('eq', Array) #6 /home/ubuntu/workspace/site/assets/cache/FileCompiler/site/modules/LanguageDefault/LanguageDefault.module(36): ProcessWire\Wire->__call('eq', Array) #7 /home/ubuntu/workspace/site/assets/cache/FileCompiler/site/modules/LanguageDefault/LanguageDefault.module(36): ProcessWire\Languag
2016-11-19 18:01:45	admin	https://dripclubpw-ibrahimoff.c9users.io/pw-admin/page/	Recoverable Fatal Error: 	Argument 2 passed to ProcessWire\LanguageSupportPageNames::getPagePath() must be an instance of ProcessWire\Language, instance of ProcessWire\NullPage given, called in /home/ubuntu/workspace/wire/modules/LanguageSupport/LanguageSupportPageNames.module on line 607 and defined (line 327 of /home/ubuntu/workspace/wire/modules/LanguageSupport/LanguageSupportPageNames.module)
2016-11-19 18:01:50	admin	https://dripclubpw-ibrahimoff.c9users.io/en/	Recoverable Fatal Error: 	Argument 2 passed to ProcessWire\LanguageSupportPageNames::getPagePath() must be an instance of ProcessWire\Language, instance of ProcessWire\NullPage given, called in /home/ubuntu/workspace/wire/modules/LanguageSupport/LanguageSupportPageNames.module on line 607 and defined (line 327 of /home/ubuntu/workspace/wire/modules/LanguageSupport/LanguageSupportPageNames.module)
2016-11-19 18:02:53	admin	https://dripclubpw-ibrahimoff.c9users.io/en/	Recoverable Fatal Error: 	Argument 2 passed to ProcessWire\LanguageSupportPageNames::getPagePath() must be an instance of ProcessWire\Language, instance of ProcessWire\NullPage given, called in /home/ubuntu/workspace/wire/modules/LanguageSupport/LanguageSupportPageNames.module on line 607 and defined (line 327 of /home/ubuntu/workspace/wire/modules/LanguageSupport/LanguageSupportPageNames.module)
2016-11-19 18:03:02	admin	https://dripclubpw-ibrahimoff.c9users.io/en/	Error: 	Call to a member function get() on a non-object (line 38 of /home/ubuntu/workspace/site/assets/cache/FileCompiler/site/modules/LanguageDefault/LanguageDefault.module)
2016-11-19 18:03:12	admin	https://dripclubpw-ibrahimoff.c9users.io/en/	Recoverable Fatal Error: 	Argument 2 passed to ProcessWire\LanguageSupportPageNames::getPagePath() must be an instance of ProcessWire\Language, instance of ProcessWire\NullPage given, called in /home/ubuntu/workspace/wire/modules/LanguageSupport/LanguageSupportPageNames.module on line 607 and defined (line 327 of /home/ubuntu/workspace/wire/modules/LanguageSupport/LanguageSupportPageNames.module)
2016-11-19 18:03:14	admin	https://dripclubpw-ibrahimoff.c9users.io/en/	Recoverable Fatal Error: 	Argument 2 passed to ProcessWire\LanguageSupportPageNames::getPagePath() must be an instance of ProcessWire\Language, instance of ProcessWire\NullPage given, called in /home/ubuntu/workspace/wire/modules/LanguageSupport/LanguageSupportPageNames.module on line 607 and defined (line 327 of /home/ubuntu/workspace/wire/modules/LanguageSupport/LanguageSupportPageNames.module)
2016-11-19 18:03:18	admin	https://dripclubpw-ibrahimoff.c9users.io/en/	Recoverable Fatal Error: 	Argument 2 passed to ProcessWire\LanguageSupportPageNames::getPagePath() must be an instance of ProcessWire\Language, instance of ProcessWire\NullPage given, called in /home/ubuntu/workspace/wire/modules/LanguageSupport/LanguageSupportPageNames.module on line 607 and defined (line 327 of /home/ubuntu/workspace/wire/modules/LanguageSupport/LanguageSupportPageNames.module)
2016-11-19 18:03:20	admin	https://dripclubpw-ibrahimoff.c9users.io/en/	Recoverable Fatal Error: 	Argument 2 passed to ProcessWire\LanguageSupportPageNames::getPagePath() must be an instance of ProcessWire\Language, instance of ProcessWire\NullPage given, called in /home/ubuntu/workspace/wire/modules/LanguageSupport/LanguageSupportPageNames.module on line 607 and defined (line 327 of /home/ubuntu/workspace/wire/modules/LanguageSupport/LanguageSupportPageNames.module)
2016-11-19 18:04:35	admin	https://dripclubpw-ibrahimoff.c9users.io/en/	Error: 	Exception: Invalid output file location or specified file does not exist.  (in /home/ubuntu/workspace/wire/modules/PageRender.module line 497)  #0 [internal function]: ProcessWire\PageRender->___renderPage(Object(ProcessWire\HookEvent)) #1 /home/ubuntu/workspace/wire/core/Wire.php(374): call_user_func_array(Array, Array) #2 /home/ubuntu/workspace/wire/core/WireHooks.php(549): ProcessWire\Wire->_callMethod('___renderPage', Array) #3 /home/ubuntu/workspace/wire/core/Wire.php(399): ProcessWire\WireHooks->runHooks(Object(ProcessWire\PageRender), 'renderPage', Array) #4 /home/ubuntu/workspace/wire/core/WireHooks.php(629): ProcessWire\Wire->__call('renderPage', Array) #5 /home/ubuntu/workspace/wire/core/WireHooks.php(629): ProcessWire\PageRender->renderPage(Object(ProcessWire\HookEvent)) #6 /home/ubuntu/workspace/wire/core/Wire.php(399): ProcessWire\WireHooks->runHooks(Object(ProcessWire\Page), 'render', Array) #7 /home/ubuntu/workspace/wire/modules/Process/ProcessPageView.module(205): ProcessWire\Wire->__call('ren
2016-11-19 18:05:10	admin	https://dripclubpw-ibrahimoff.c9users.io/en/	Error: 	Exception: Invalid output file location or specified file does not exist.  (in /home/ubuntu/workspace/wire/modules/PageRender.module line 497)  #0 [internal function]: ProcessWire\PageRender->___renderPage(Object(ProcessWire\HookEvent)) #1 /home/ubuntu/workspace/wire/core/Wire.php(374): call_user_func_array(Array, Array) #2 /home/ubuntu/workspace/wire/core/WireHooks.php(549): ProcessWire\Wire->_callMethod('___renderPage', Array) #3 /home/ubuntu/workspace/wire/core/Wire.php(399): ProcessWire\WireHooks->runHooks(Object(ProcessWire\PageRender), 'renderPage', Array) #4 /home/ubuntu/workspace/wire/core/WireHooks.php(629): ProcessWire\Wire->__call('renderPage', Array) #5 /home/ubuntu/workspace/wire/core/WireHooks.php(629): ProcessWire\PageRender->renderPage(Object(ProcessWire\HookEvent)) #6 /home/ubuntu/workspace/wire/core/Wire.php(399): ProcessWire\WireHooks->runHooks(Object(ProcessWire\Page), 'render', Array) #7 /home/ubuntu/workspace/wire/modules/Process/ProcessPageView.module(205): ProcessWire\Wire->__call('ren
2016-11-19 18:07:01	admin	https://dripclubpw-ibrahimoff.c9users.io/en/	Error: 	Exception: Invalid output file location or specified file does not exist.  (in /home/ubuntu/workspace/wire/modules/PageRender.module line 497)  #0 [internal function]: ProcessWire\PageRender->___renderPage(Object(ProcessWire\HookEvent)) #1 /home/ubuntu/workspace/wire/core/Wire.php(374): call_user_func_array(Array, Array) #2 /home/ubuntu/workspace/wire/core/WireHooks.php(549): ProcessWire\Wire->_callMethod('___renderPage', Array) #3 /home/ubuntu/workspace/wire/core/Wire.php(399): ProcessWire\WireHooks->runHooks(Object(ProcessWire\PageRender), 'renderPage', Array) #4 /home/ubuntu/workspace/wire/core/WireHooks.php(629): ProcessWire\Wire->__call('renderPage', Array) #5 /home/ubuntu/workspace/wire/core/WireHooks.php(629): ProcessWire\PageRender->renderPage(Object(ProcessWire\HookEvent)) #6 /home/ubuntu/workspace/wire/core/Wire.php(399): ProcessWire\WireHooks->runHooks(Object(ProcessWire\Page), 'render', Array) #7 /home/ubuntu/workspace/wire/modules/Process/ProcessPageView.module(205): ProcessWire\Wire->__call('ren
2016-11-19 18:09:41	admin	https://dripclubpw-ibrahimoff.c9users.io/?/	Error: 	Call to a member function addHookBefore() on a non-object (line 31 of /home/ubuntu/workspace/site/assets/cache/FileCompiler/site/modules/LanguageDefault/LanguageDefault.module)
2016-11-19 18:10:29	admin	https://dripclubpw-ibrahimoff.c9users.io/en/	Error: 	Exception: Invalid output file location or specified file does not exist.  (in /home/ubuntu/workspace/wire/modules/PageRender.module line 497)  #0 [internal function]: ProcessWire\PageRender->___renderPage(Object(ProcessWire\HookEvent)) #1 /home/ubuntu/workspace/wire/core/Wire.php(374): call_user_func_array(Array, Array) #2 /home/ubuntu/workspace/wire/core/WireHooks.php(549): ProcessWire\Wire->_callMethod('___renderPage', Array) #3 /home/ubuntu/workspace/wire/core/Wire.php(399): ProcessWire\WireHooks->runHooks(Object(ProcessWire\PageRender), 'renderPage', Array) #4 /home/ubuntu/workspace/wire/core/WireHooks.php(629): ProcessWire\Wire->__call('renderPage', Array) #5 /home/ubuntu/workspace/wire/core/WireHooks.php(629): ProcessWire\PageRender->renderPage(Object(ProcessWire\HookEvent)) #6 /home/ubuntu/workspace/wire/core/Wire.php(399): ProcessWire\WireHooks->runHooks(Object(ProcessWire\Page), 'render', Array) #7 /home/ubuntu/workspace/wire/modules/Process/ProcessPageView.module(205): ProcessWire\Wire->__call('ren
2016-11-19 18:33:21	admin	https://dripclubpw-ibrahimoff.c9users.io/en/	Error: 	Call to a member function arguments() on a non-object (line 33 of /home/ubuntu/workspace/site/assets/cache/FileCompiler/site/modules/LanguageDefault/LanguageDefault.module)
2016-11-19 18:33:24	admin	https://dripclubpw-ibrahimoff.c9users.io/en/	Error: 	Call to a member function arguments() on a non-object (line 33 of /home/ubuntu/workspace/site/assets/cache/FileCompiler/site/modules/LanguageDefault/LanguageDefault.module)
2016-11-19 18:33:49	admin	https://dripclubpw-ibrahimoff.c9users.io/en/	Recoverable Fatal Error: 	Argument 2 passed to ProcessWire\LanguageSupportPageNames::getPagePath() must be an instance of ProcessWire\Language, instance of ProcessWire\NullPage given, called in /home/ubuntu/workspace/wire/modules/LanguageSupport/LanguageSupportPageNames.module on line 607 and defined (line 327 of /home/ubuntu/workspace/wire/modules/LanguageSupport/LanguageSupportPageNames.module)
2016-11-19 18:34:20	admin	https://dripclubpw-ibrahimoff.c9users.io/en/	Recoverable Fatal Error: 	Argument 2 passed to ProcessWire\LanguageSupportPageNames::getPagePath() must be an instance of ProcessWire\Language, instance of ProcessWire\NullPage given, called in /home/ubuntu/workspace/wire/modules/LanguageSupport/LanguageSupportPageNames.module on line 607 and defined (line 327 of /home/ubuntu/workspace/wire/modules/LanguageSupport/LanguageSupportPageNames.module)
2016-11-19 18:34:23	admin	https://dripclubpw-ibrahimoff.c9users.io/en/	Recoverable Fatal Error: 	Argument 2 passed to ProcessWire\LanguageSupportPageNames::getPagePath() must be an instance of ProcessWire\Language, instance of ProcessWire\NullPage given, called in /home/ubuntu/workspace/wire/modules/LanguageSupport/LanguageSupportPageNames.module on line 607 and defined (line 327 of /home/ubuntu/workspace/wire/modules/LanguageSupport/LanguageSupportPageNames.module)
2016-11-19 18:34:37	admin	https://dripclubpw-ibrahimoff.c9users.io/en/	Recoverable Fatal Error: 	Argument 2 passed to ProcessWire\LanguageSupportPageNames::getPagePath() must be an instance of ProcessWire\Language, instance of ProcessWire\NullPage given, called in /home/ubuntu/workspace/wire/modules/LanguageSupport/LanguageSupportPageNames.module on line 607 and defined (line 327 of /home/ubuntu/workspace/wire/modules/LanguageSupport/LanguageSupportPageNames.module)
2016-11-19 18:35:00	admin	https://dripclubpw-ibrahimoff.c9users.io/en/	Recoverable Fatal Error: 	Argument 2 passed to ProcessWire\LanguageSupportPageNames::getPagePath() must be an instance of ProcessWire\Language, instance of ProcessWire\NullPage given, called in /home/ubuntu/workspace/wire/modules/LanguageSupport/LanguageSupportPageNames.module on line 607 and defined (line 327 of /home/ubuntu/workspace/wire/modules/LanguageSupport/LanguageSupportPageNames.module)
2016-11-19 18:35:19	admin	https://dripclubpw-ibrahimoff.c9users.io/en/	Recoverable Fatal Error: 	Argument 2 passed to ProcessWire\LanguageSupportPageNames::getPagePath() must be an instance of ProcessWire\Language, instance of ProcessWire\NullPage given, called in /home/ubuntu/workspace/wire/modules/LanguageSupport/LanguageSupportPageNames.module on line 607 and defined (line 327 of /home/ubuntu/workspace/wire/modules/LanguageSupport/LanguageSupportPageNames.module)
2016-11-19 19:01:54	admin	https://dripclubpw-ibrahimoff.c9users.io/az/category-2/	Error: 	Class 'PageNotFoundException' not found (line 2 of /home/ubuntu/workspace/site/templates/hiddentemplate.php)
2016-11-19 19:10:32	admin	https://dripclubpw-ibrahimoff.c9users.io/en/category-2/	Parse Error: 	syntax error, unexpected 'throw' (T_THROW) (line 2 of /home/ubuntu/workspace/site/assets/cache/FileCompiler/site/templates/hiddentemplate.php)
2016-11-19 19:13:30	admin	https://dripclubpw-ibrahimoff.c9users.io/en/category-2/	Error: 	Allowed memory size of 134217728 bytes exhausted (tried to allocate 125566976 bytes) (line 3 of /home/ubuntu/workspace/site/templates/hiddentemplate.php)
2016-11-19 19:18:16	admin	https://dripclubpw-ibrahimoff.c9users.io/en/	Error: 	Exception: Method NullPage::select does not exist or is not callable in this context (in /home/ubuntu/workspace/wire/core/Wire.php line 476)  #0 /home/ubuntu/workspace/wire/core/Page.php(1481): ProcessWire\Wire->___callUnknown('select', Array) #1 [internal function]: ProcessWire\Page->___callUnknown('select', Array) #2 /home/ubuntu/workspace/wire/core/Wire.php(374): call_user_func_array(Array, Array) #3 /home/ubuntu/workspace/wire/core/WireHooks.php(549): ProcessWire\Wire->_callMethod('___callUnknown', Array) #4 /home/ubuntu/workspace/wire/core/Wire.php(399): ProcessWire\WireHooks->runHooks(Object(ProcessWire\NullPage), 'callUnknown', Array) #5 /home/ubuntu/workspace/wire/core/Wire.php(402): ProcessWire\Wire->__call('callUnknown', Array) #6 /home/ubuntu/workspace/wire/core/Wire.php(402): ProcessWire\NullPage->callUnknown('select', Array) #7 /home/ubuntu/workspace/site/templates/home.php(13): ProcessWire\Wire->__call('select', Array) #8 /home/ubuntu/workspace/site/templates/home.php(13): ProcessWire\NullPage->
2016-11-19 19:44:16	admin	https://dripclubpw-ibrahimoff.c9users.io/az/	Error: 	Exception: Unknown Selector operator: '' -- was your selector value properly escaped? field='', value='/site-settings/', selector: 'parent_id=1, /site-settings/, sort=sort' (in /home/ubuntu/workspace/wire/core/Selectors.php line 307)  #0 /home/ubuntu/workspace/wire/core/Selectors.php(351): ProcessWire\Selectors->create('', '', '/site-settings/') #1 /home/ubuntu/workspace/wire/core/Selectors.php(128): ProcessWire\Selectors->extractString('parent_id=1, /s...') #2 /home/ubuntu/workspace/wire/core/Selectors.php(116): ProcessWire\Selectors->setSelectorString('parent_id=1, /s...') #3 /home/ubuntu/workspace/wire/core/PagesLoader.php(188): ProcessWire\Selectors->init('parent_id=1, /s...') #4 /home/ubuntu/workspace/wire/core/Pages.php(225): ProcessWire\PagesLoader->find('parent_id=1, /s...', Array) #5 [internal function]: ProcessWire\Pages->___find('parent_id=1, /s...', Array) #6 /home/ubuntu/workspace/wire/core/Wire.php(374): call_user_func_array(Array, Array) #7 /home/ubuntu/workspace/wire/core/WireHooks.php(549): P
2016-11-19 19:45:16	admin	https://dripclubpw-ibrahimoff.c9users.io/az/	Error: 	Allowed memory size of 134217728 bytes exhausted (tried to allocate 125304832 bytes) (line 7 of /home/ubuntu/workspace/site/templates/home.php)
2016-11-19 19:45:18	admin	https://dripclubpw-ibrahimoff.c9users.io/az/	Error: 	Allowed memory size of 134217728 bytes exhausted (tried to allocate 125566976 bytes) (line 7 of /home/ubuntu/workspace/site/templates/home.php)
2016-11-19 19:45:48	admin	https://dripclubpw-ibrahimoff.c9users.io/az/	Error: 	Exception: Unknown Selector operator: '' -- was your selector value properly escaped? field='', value='/site-settings/', selector: 'has_parent=1, /site-settings/' (in /home/ubuntu/workspace/wire/core/Selectors.php line 307)  #0 /home/ubuntu/workspace/wire/core/Selectors.php(351): ProcessWire\Selectors->create('', '', '/site-settings/') #1 /home/ubuntu/workspace/wire/core/Selectors.php(128): ProcessWire\Selectors->extractString('has_parent=1, /...') #2 /home/ubuntu/workspace/wire/core/Selectors.php(116): ProcessWire\Selectors->setSelectorString('has_parent=1, /...') #3 /home/ubuntu/workspace/wire/core/PagesLoader.php(188): ProcessWire\Selectors->init('has_parent=1, /...') #4 /home/ubuntu/workspace/wire/core/Pages.php(225): ProcessWire\PagesLoader->find('has_parent=1, /...', Array) #5 [internal function]: ProcessWire\Pages->___find('has_parent=1, /...', Array) #6 /home/ubuntu/workspace/wire/core/Wire.php(374): call_user_func_array(Array, Array) #7 /home/ubuntu/workspace/wire/core/WireHooks.php(549): ProcessWire
2016-11-19 19:45:56	admin	https://dripclubpw-ibrahimoff.c9users.io/az/	Error: 	Allowed memory size of 134217728 bytes exhausted (tried to allocate 125304832 bytes) (line 7 of /home/ubuntu/workspace/site/templates/home.php)
2016-11-19 19:47:32	admin	https://dripclubpw-ibrahimoff.c9users.io/az/	Error: 	Allowed memory size of 134217728 bytes exhausted (tried to allocate 125304832 bytes) (line 7 of /home/ubuntu/workspace/site/templates/home.php)
2016-11-19 20:57:43	admin	https://dripclubpw-ibrahimoff.c9users.io/az/	Parse Error: 	syntax error, unexpected '?>' (line 16 of /home/ubuntu/workspace/site/templates/inc/header.php)
2016-11-19 20:58:45	admin	https://dripclubpw-ibrahimoff.c9users.io/az/	Parse Error: 	syntax error, unexpected 'echo' (T_ECHO) (line 16 of /home/ubuntu/workspace/site/templates/inc/header.php)
2016-11-19 21:07:35	admin	https://dripclubpw-ibrahimoff.c9users.io/az/	Error: 	Call to a member function getLanguageValue() on a non-object (line 2 of /home/ubuntu/workspace/site/templates/inc/header.php)
2016-11-21 16:57:18	admin	https://dripclubpw-ibrahimoff.c9users.io/pw-admin/page/edit/	Error: 	Call to a member function getInputfield() on a non-object (line 204 of /home/ubuntu/workspace/wire/modules/Fieldtype/FieldtypeRepeater/InputfieldRepeater.module)
2016-11-21 16:57:22	admin	https://dripclubpw-ibrahimoff.c9users.io/pw-admin/page/edit/	Error: 	Call to a member function getInputfield() on a non-object (line 204 of /home/ubuntu/workspace/wire/modules/Fieldtype/FieldtypeRepeater/InputfieldRepeater.module)
2016-11-21 16:58:10	admin	https://dripclubpw-ibrahimoff.c9users.io/pw-admin/page/edit/	Error: 	Call to a member function getInputfield() on a non-object (line 204 of /home/ubuntu/workspace/wire/modules/Fieldtype/FieldtypeRepeater/InputfieldRepeater.module)
2016-11-21 16:59:40	admin	https://dripclubpw-ibrahimoff.c9users.io/pw-admin/page/edit/	Error: 	Call to a member function getInputfield() on a non-object (line 204 of /home/ubuntu/workspace/wire/modules/Fieldtype/FieldtypeRepeater/InputfieldRepeater.module)
2016-11-21 19:02:28	admin	https://dripclubpw-ibrahimoff.c9users.io/pw-admin/page/edit/	Error: 	Allowed memory size of 134217728 bytes exhausted (tried to allocate 123469824 bytes) (line 56 of /home/ubuntu/workspace/site/assets/cache/FileCompiler/site/modules/InputfieldChosenSelect/InputfieldChosenSelectMultiple.module)
2016-11-21 19:02:52	admin	https://dripclubpw-ibrahimoff.c9users.io/pw-admin/page/edit/	Error: 	Allowed memory size of 134217728 bytes exhausted (tried to allocate 123469824 bytes) (line 56 of /home/ubuntu/workspace/site/assets/cache/FileCompiler/site/modules/InputfieldChosenSelect/InputfieldChosenSelectMultiple.module)
2016-11-21 19:03:10	admin	https://dripclubpw-ibrahimoff.c9users.io/pw-admin/page/edit/	Error: 	Allowed memory size of 134217728 bytes exhausted (tried to allocate 123469824 bytes) (line 53 of /home/ubuntu/workspace/site/assets/cache/FileCompiler/site/modules/InputfieldChosenSelect/InputfieldChosenSelectMultiple.module)
2016-11-21 19:03:47	admin	https://dripclubpw-ibrahimoff.c9users.io/pw-admin/page/edit/	Error: 	Allowed memory size of 134217728 bytes exhausted (tried to allocate 123469824 bytes) (line 53 of /home/ubuntu/workspace/site/assets/cache/FileCompiler/site/modules/InputfieldChosenSelect/InputfieldChosenSelectMultiple.module)
2016-11-21 19:04:02	admin	https://dripclubpw-ibrahimoff.c9users.io/pw-admin/page/edit/	Error: 	Allowed memory size of 134217728 bytes exhausted (tried to allocate 123469824 bytes) (line 53 of /home/ubuntu/workspace/site/assets/cache/FileCompiler/site/modules/InputfieldChosenSelect/InputfieldChosenSelectMultiple.module)
2016-11-21 19:17:50	admin	https://dripclubpw-ibrahimoff.c9users.io/pw-admin/page/edit/	Error: 	Call to a member function append() on a non-object (line 51 of /home/ubuntu/workspace/site/assets/cache/FileCompiler/site/modules/InputfieldChosenSelect/InputfieldChosenSelectMultiple.module)
2016-11-21 19:18:05	admin	https://dripclubpw-ibrahimoff.c9users.io/pw-admin/page/edit/	Error: 	Call to a member function add() on a non-object (line 51 of /home/ubuntu/workspace/site/assets/cache/FileCompiler/site/modules/InputfieldChosenSelect/InputfieldChosenSelectMultiple.module)
2016-11-22 20:38:11	admin	https://dripclubpw-ibrahimoff.c9users.io/pw-admin/page/edit/	Parse Error: 	syntax error, unexpected '$class' (T_VARIABLE), expecting ',' or ';' (line 51 of /home/ubuntu/workspace/site/assets/cache/FileCompiler/site/modules/InputfieldChosenSelect/InputfieldChosenSelectMultiple.module)
2016-11-22 21:17:50	admin	https://dripclubpw-ibrahimoff.c9users.io/ru/	Error: 	Call to a member function first() on a non-object (line 38 of /home/ubuntu/workspace/site/templates/home.php)
2016-11-22 21:18:19	admin	https://dripclubpw-ibrahimoff.c9users.io/ru/	Error: 	Allowed memory size of 134217728 bytes exhausted (tried to allocate 124780544 bytes) (line 37 of /home/ubuntu/workspace/site/templates/home.php)
2016-11-22 21:18:29	admin	https://dripclubpw-ibrahimoff.c9users.io/ru/	Error: 	Call to a member function first() on a non-object (line 40 of /home/ubuntu/workspace/site/templates/home.php)
2016-11-22 21:18:40	admin	https://dripclubpw-ibrahimoff.c9users.io/ru/	Error: 	Call to a member function first() on a non-object (line 40 of /home/ubuntu/workspace/site/templates/home.php)
2016-11-22 21:18:56	admin	https://dripclubpw-ibrahimoff.c9users.io/ru/	Error: 	Call to a member function first() on a non-object (line 40 of /home/ubuntu/workspace/site/templates/home.php)
2016-11-22 21:23:13	admin	https://dripclubpw-ibrahimoff.c9users.io/ru/	Error: 	Call to a member function first() on a non-object (line 38 of /home/ubuntu/workspace/site/templates/home.php)
2016-11-22 21:23:40	admin	https://dripclubpw-ibrahimoff.c9users.io/ru/	Error: 	Call to a member function first() on a non-object (line 39 of /home/ubuntu/workspace/site/templates/home.php)
2016-11-22 21:23:48	admin	https://dripclubpw-ibrahimoff.c9users.io/ru/	Error: 	Call to a member function first() on a non-object (line 39 of /home/ubuntu/workspace/site/templates/home.php)
2016-11-22 21:23:59	admin	https://dripclubpw-ibrahimoff.c9users.io/ru/	Error: 	Call to a member function first() on a non-object (line 39 of /home/ubuntu/workspace/site/templates/home.php)
2016-11-22 21:24:13	admin	https://dripclubpw-ibrahimoff.c9users.io/ru/	Error: 	Call to a member function first() on a non-object (line 40 of /home/ubuntu/workspace/site/templates/home.php)
2016-11-22 21:24:23	admin	https://dripclubpw-ibrahimoff.c9users.io/ru/	Error: 	Call to a member function first() on a non-object (line 40 of /home/ubuntu/workspace/site/templates/home.php)
2016-11-22 21:24:47	admin	https://dripclubpw-ibrahimoff.c9users.io/ru/	Error: 	Call to a member function first() on a non-object (line 40 of /home/ubuntu/workspace/site/templates/home.php)
2016-11-22 21:24:55	admin	https://dripclubpw-ibrahimoff.c9users.io/ru/	Error: 	Call to a member function first() on a non-object (line 40 of /home/ubuntu/workspace/site/templates/home.php)
2016-11-22 21:35:42	admin	https://dripclubpw-ibrahimoff.c9users.io/ru/	Error: 	Call to undefined function recursivelyGetCategories() (line 70 of /home/ubuntu/workspace/site/templates/inc/header.php)
2016-11-22 21:35:43	admin	https://dripclubpw-ibrahimoff.c9users.io/ru/http404/	Error: 	Call to undefined function recursivelyGetCategories() (line 70 of /home/ubuntu/workspace/site/templates/inc/header.php)
2016-11-22 21:41:16	admin	https://dripclubpw-ibrahimoff.c9users.io/ru/	Error: 	Call to a member function hasChildren() on a non-object (line 127 of /home/ubuntu/workspace/site/templates/_func.php)
2016-11-22 21:41:52	admin	https://dripclubpw-ibrahimoff.c9users.io/ru/	Error: 	Allowed memory size of 134217728 bytes exhausted (tried to allocate 125042688 bytes) (line 125 of /home/ubuntu/workspace/site/templates/_func.php)
2016-11-24 18:49:28	admin	https://dripclubpw-ibrahimoff.c9users.io/ru/	Error: 	Call to a member function hasChildren() on a non-object (line 129 of /home/ubuntu/workspace/site/templates/_func.php)
2016-11-24 18:50:12	admin	https://dripclubpw-ibrahimoff.c9users.io/ru/	Error: 	Call to a member function chidlren() on a non-object (line 129 of /home/ubuntu/workspace/site/templates/_func.php)
2016-11-24 18:50:36	admin	https://dripclubpw-ibrahimoff.c9users.io/ru/	Error: 	Call to a member function chidlren() on a non-object (line 129 of /home/ubuntu/workspace/site/templates/_func.php)
2016-11-24 18:51:28	admin	https://dripclubpw-ibrahimoff.c9users.io/ru/	Error: 	Call to a member function chidlren() on a non-object (line 129 of /home/ubuntu/workspace/site/templates/_func.php)
2016-11-24 18:51:36	admin	https://dripclubpw-ibrahimoff.c9users.io/ru/	Error: 	Allowed memory size of 134217728 bytes exhausted (tried to allocate 124518400 bytes) (line 129 of /home/ubuntu/workspace/site/templates/_func.php)
2016-11-24 19:01:19	admin	https://dripclubpw-ibrahimoff.c9users.io/ru/	Error: 	Allowed memory size of 134217728 bytes exhausted (tried to allocate 124780544 bytes) (line 19 of /home/ubuntu/workspace/site/templates/home.php)
2016-11-24 19:08:56	admin	https://dripclubpw-ibrahimoff.c9users.io/ru/	Error: 	Exception: Method Page::hasParent does not exist or is not callable in this context (in /home/ubuntu/workspace/wire/core/Wire.php line 476)  #0 /home/ubuntu/workspace/wire/core/Page.php(1481): ProcessWire\Wire->___callUnknown('hasParent', Array) #1 [internal function]: ProcessWire\Page->___callUnknown('hasParent', Array) #2 /home/ubuntu/workspace/wire/core/Wire.php(374): call_user_func_array(Array, Array) #3 /home/ubuntu/workspace/wire/core/WireHooks.php(549): ProcessWire\Wire->_callMethod('___callUnknown', Array) #4 /home/ubuntu/workspace/wire/core/Wire.php(399): ProcessWire\WireHooks->runHooks(Object(ProcessWire\Page), 'callUnknown', Array) #5 /home/ubuntu/workspace/wire/core/Wire.php(402): ProcessWire\Wire->__call('callUnknown', Array) #6 /home/ubuntu/workspace/wire/core/Wire.php(402): ProcessWire\Page->callUnknown('hasParent', Array) #7 /home/ubuntu/workspace/site/templates/_func.php(137): ProcessWire\Wire->__call('hasParent', Array) #8 /home/ubuntu/workspace/site/templates/_func.php(137): ProcessWire\Pag
2016-11-24 19:09:06	admin	https://dripclubpw-ibrahimoff.c9users.io/ru/	Error: 	Allowed memory size of 134217728 bytes exhausted (tried to allocate 124780544 bytes) (line 137 of /home/ubuntu/workspace/site/templates/_func.php)
2016-11-24 19:09:35	admin	https://dripclubpw-ibrahimoff.c9users.io/ru/	Error: 	Allowed memory size of 134217728 bytes exhausted (tried to allocate 124780544 bytes) (line 137 of /home/ubuntu/workspace/site/templates/_func.php)
2016-11-24 19:09:42	admin	https://dripclubpw-ibrahimoff.c9users.io/ru/	Error: 	Allowed memory size of 134217728 bytes exhausted (tried to allocate 124780544 bytes) (line 137 of /home/ubuntu/workspace/site/templates/_func.php)
2016-11-24 19:10:06	admin	https://dripclubpw-ibrahimoff.c9users.io/ru/	Error: 	Allowed memory size of 134217728 bytes exhausted (tried to allocate 124780544 bytes) (line 137 of /home/ubuntu/workspace/site/templates/_func.php)
2016-11-24 19:15:43	admin	https://dripclubpw-ibrahimoff.c9users.io/ru/	Error: 	Call to a member function children() on a non-object (line 134 of /home/ubuntu/workspace/site/templates/_func.php)
2016-11-24 19:16:07	admin	https://dripclubpw-ibrahimoff.c9users.io/ru/	Parse Error: 	syntax error, unexpected '{' (line 134 of /home/ubuntu/workspace/site/templates/_func.php)
2016-11-24 19:17:02	admin	https://dripclubpw-ibrahimoff.c9users.io/ru/	Error: 	Call to a member function children() on a non-object (line 133 of /home/ubuntu/workspace/site/templates/_func.php)
2016-11-24 19:17:42	admin	https://dripclubpw-ibrahimoff.c9users.io/ru/	Error: 	Allowed memory size of 134217728 bytes exhausted (tried to allocate 124780544 bytes) (line 133 of /home/ubuntu/workspace/site/templates/_func.php)
2016-11-24 19:18:14	admin	https://dripclubpw-ibrahimoff.c9users.io/ru/	Error: 	Allowed memory size of 134217728 bytes exhausted (tried to allocate 124780544 bytes) (line 133 of /home/ubuntu/workspace/site/templates/_func.php)
2016-11-24 19:18:53	admin	https://dripclubpw-ibrahimoff.c9users.io/ru/	Error: 	Call to a member function children() on a non-object (line 133 of /home/ubuntu/workspace/site/templates/_func.php)
2016-11-24 19:19:01	admin	https://dripclubpw-ibrahimoff.c9users.io/ru/	Error: 	Call to a member function children() on a non-object (line 133 of /home/ubuntu/workspace/site/templates/_func.php)
2016-11-24 19:20:06	admin	https://dripclubpw-ibrahimoff.c9users.io/ru/	Error: 	Allowed memory size of 134217728 bytes exhausted (tried to allocate 124256256 bytes) (line 133 of /home/ubuntu/workspace/site/templates/_func.php)
2016-11-24 19:20:50	admin	https://dripclubpw-ibrahimoff.c9users.io/ru/	Error: 	Call to a member function children() on a non-object (line 133 of /home/ubuntu/workspace/site/templates/_func.php)
2016-11-24 19:21:14	admin	https://dripclubpw-ibrahimoff.c9users.io/ru/	Error: 	Call to a member function children() on a non-object (line 133 of /home/ubuntu/workspace/site/templates/_func.php)
2016-11-24 19:21:25	admin	https://dripclubpw-ibrahimoff.c9users.io/ru/	Error: 	Call to a member function children() on a non-object (line 133 of /home/ubuntu/workspace/site/templates/_func.php)
2016-11-24 19:21:36	admin	https://dripclubpw-ibrahimoff.c9users.io/ru/	Error: 	Call to a member function children() on a non-object (line 133 of /home/ubuntu/workspace/site/templates/_func.php)
2016-11-24 19:22:00	admin	https://dripclubpw-ibrahimoff.c9users.io/ru/	Error: 	Call to a member function children() on a non-object (line 133 of /home/ubuntu/workspace/site/templates/_func.php)
2016-11-24 19:22:16	admin	https://dripclubpw-ibrahimoff.c9users.io/ru/	Error: 	Call to a member function children() on a non-object (line 133 of /home/ubuntu/workspace/site/templates/_func.php)
2016-11-24 19:22:32	admin	https://dripclubpw-ibrahimoff.c9users.io/ru/	Error: 	Allowed memory size of 134217728 bytes exhausted (tried to allocate 124780544 bytes) (line 135 of /home/ubuntu/workspace/site/templates/_func.php)
2016-11-24 19:23:52	admin	https://dripclubpw-ibrahimoff.c9users.io/ru/	Error: 	Allowed memory size of 134217728 bytes exhausted (tried to allocate 124780544 bytes) (line 135 of /home/ubuntu/workspace/site/templates/_func.php)
2016-11-24 19:24:04	admin	https://dripclubpw-ibrahimoff.c9users.io/ru/	Error: 	Call to a member function children() on a non-object (line 133 of /home/ubuntu/workspace/site/templates/_func.php)
2016-11-24 19:24:53	admin	https://dripclubpw-ibrahimoff.c9users.io/ru/	Error: 	Call to a member function children() on a non-object (line 133 of /home/ubuntu/workspace/site/templates/_func.php)
2016-11-24 19:32:57	admin	https://dripclubpw-ibrahimoff.c9users.io/ru/	Error: 	Allowed memory size of 134217728 bytes exhausted (tried to allocate 124780544 bytes) (line 137 of /home/ubuntu/workspace/site/templates/_func.php)
2016-11-24 19:34:14	admin	https://dripclubpw-ibrahimoff.c9users.io/ru/	Error: 	Call to a member function children() on a non-object (line 133 of /home/ubuntu/workspace/site/templates/_func.php)
2016-11-24 19:34:54	admin	https://dripclubpw-ibrahimoff.c9users.io/ru/	Error: 	Call to a member function children() on a non-object (line 134 of /home/ubuntu/workspace/site/templates/_func.php)
2016-11-24 19:36:25	admin	https://dripclubpw-ibrahimoff.c9users.io/ru/	Error: 	Call to a member function children() on a non-object (line 133 of /home/ubuntu/workspace/site/templates/_func.php)
2016-11-24 19:36:58	admin	https://dripclubpw-ibrahimoff.c9users.io/ru/	Error: 	Call to a member function children() on a non-object (line 133 of /home/ubuntu/workspace/site/templates/_func.php)
2016-11-24 19:37:32	admin	https://dripclubpw-ibrahimoff.c9users.io/ru/	Error: 	Call to a member function children() on a non-object (line 133 of /home/ubuntu/workspace/site/templates/_func.php)
2016-11-24 19:37:56	admin	https://dripclubpw-ibrahimoff.c9users.io/ru/	Error: 	Call to a member function children() on a non-object (line 134 of /home/ubuntu/workspace/site/templates/_func.php)
2016-11-24 19:38:29	admin	https://dripclubpw-ibrahimoff.c9users.io/ru/	Error: 	Call to a member function children() on a non-object (line 134 of /home/ubuntu/workspace/site/templates/_func.php)
2016-11-24 19:38:36	admin	https://dripclubpw-ibrahimoff.c9users.io/ru/	Error: 	Call to a member function children() on a non-object (line 134 of /home/ubuntu/workspace/site/templates/_func.php)
2016-11-24 19:39:55	admin	https://dripclubpw-ibrahimoff.c9users.io/ru/	Error: 	Call to a member function children() on a non-object (line 5 of /home/ubuntu/workspace/site/templates/home.php)
2016-11-24 19:41:09	admin	https://dripclubpw-ibrahimoff.c9users.io/ru/	Error: 	Call to a member function children() on a non-object (line 133 of /home/ubuntu/workspace/site/templates/_func.php)
2016-11-24 20:11:42	admin	https://dripclubpw-ibrahimoff.c9users.io/ru/	Error: 	Call to undefined function nested2ul() (line 70 of /home/ubuntu/workspace/site/templates/inc/header.php)
2016-11-24 20:11:43	admin	https://dripclubpw-ibrahimoff.c9users.io/ru/http404/	Error: 	Call to undefined function nested2ul() (line 70 of /home/ubuntu/workspace/site/templates/inc/header.php)
2016-11-24 20:12:21	admin	https://dripclubpw-ibrahimoff.c9users.io/ru/	Error: 	Cannot redeclare ProcessWire\renderNav() (previously declared in /home/ubuntu/workspace/site/templates/_func.php:27) (line 27 of /home/ubuntu/workspace/site/templates/_func.php)
2016-11-24 20:12:31	admin	https://dripclubpw-ibrahimoff.c9users.io/ru/	Error: 	Cannot redeclare ProcessWire\renderNav() (previously declared in /home/ubuntu/workspace/site/templates/_func.php:27) (line 27 of /home/ubuntu/workspace/site/templates/_func.php)
2016-11-24 20:16:08	admin	https://dripclubpw-ibrahimoff.c9users.io/ru/	Parse Error: 	syntax error, unexpected '$class' (T_VARIABLE) (line 7 of /home/ubuntu/workspace/site/templates/inc/header.php)
2016-11-24 20:46:35	admin	https://dripclubpw-ibrahimoff.c9users.io/ru/	Parse Error: 	syntax error, unexpected ''dropdown-menu'' (T_CONSTANT_ENCAPSED_STRING) (line 6 of /home/ubuntu/workspace/site/templates/inc/header.php)
2016-11-24 20:53:31	admin	https://dripclubpw-ibrahimoff.c9users.io/ru/	Error: 	Call to a member function get() on a non-object (line 10 of /home/ubuntu/workspace/site/templates/inc/header.php)
2016-11-24 20:53:32	admin	https://dripclubpw-ibrahimoff.c9users.io/ru/http404/	Error: 	Call to a member function get() on a non-object (line 10 of /home/ubuntu/workspace/site/templates/inc/header.php)
2016-11-24 20:56:09	admin	https://dripclubpw-ibrahimoff.c9users.io/ru/	Error: 	Allowed memory size of 134217728 bytes exhausted (tried to allocate 125042688 bytes) (line 3 of /home/ubuntu/workspace/site/templates/inc/header.php)
2016-11-24 21:00:12	admin	https://dripclubpw-ibrahimoff.c9users.io/ru/	Parse Error: 	syntax error, unexpected ''dropdown items-category'' (T_CONSTANT_ENCAPSED_STRING) (line 11 of /home/ubuntu/workspace/site/templates/inc/header.php)
2016-11-24 21:47:17	admin	https://dripclubpw-ibrahimoff.c9users.io/ru/	Parse Error: 	syntax error, unexpected '}' (line 14 of /home/ubuntu/workspace/site/templates/inc/header.php)
2016-11-24 21:56:35	admin	https://dripclubpw-ibrahimoff.c9users.io/ru/	Parse Error: 	syntax error, unexpected '{' (line 15 of /home/ubuntu/workspace/site/templates/inc/header.php)
2016-11-25 22:08:51	admin	https://dripclubpw-ibrahimoff.c9users.io/ru/category3/subcategory-3.1/undersubcategory-3.1/	Error: 	Call to a member function first() on a non-object (line 134 of /home/ubuntu/workspace/site/templates/_func.php)
