2016-11-17 15:54:29	admin	https://dripclubpw-ibrahimoff.c9users.io/pw-admin/login/	Successful login for 'admin'
2016-11-17 15:54:29	?	?	User 'admin' - Error: Session fingerprint changed (IP address or useragent) (IP: 10.240.0.181)
2016-11-17 15:54:36	admin	https://dripclubpw-ibrahimoff.c9users.io/pw-admin/login/	Successful login for 'admin'
2016-11-17 15:54:36	?	?	User 'admin' - Error: Session fingerprint changed (IP address or useragent) (IP: 10.240.1.45)
2016-11-17 15:57:41	admin	https://dripclubpw-ibrahimoff.c9users.io/pw-admin/login/	Successful login for 'admin'
2016-11-19 15:33:45	guest	https://dripclubpw-ibrahimoff.c9users.io/pw-admin/login/	Error: Failed login for 'admin' - Invalid password
2016-11-19 15:33:50	admin	https://dripclubpw-ibrahimoff.c9users.io/pw-admin/login/	Successful login for 'admin'
2016-11-21 16:03:09	?	?	User 'admin' - Session timed out (session older than 86400 seconds) (IP: 10.240.1.18)
2016-11-21 16:04:48	guest	https://dripclubpw-ibrahimoff.c9users.io/pw-admin/login/	Error: Failed login for 'admin' - Invalid password
2016-11-21 16:04:53	guest	https://dripclubpw-ibrahimoff.c9users.io/pw-admin/login/	Error: Failed login for 'admin' - Invalid password
2016-11-21 16:04:58	admin	https://dripclubpw-ibrahimoff.c9users.io/pw-admin/login/	Successful login for 'admin'
2016-11-22 20:36:53	?	?	User 'admin' - Session timed out (session older than 86400 seconds) (IP: 10.240.1.4)
2016-11-22 20:37:33	admin	https://dripclubpw-ibrahimoff.c9users.io/pw-admin/login/	Successful login for 'admin'
2016-11-24 16:24:45	admin	https://dripclubpw-ibrahimoff.c9users.io/pw-admin/login/	Successful login for 'admin'
2016-11-26 11:58:49	?	?	User 'admin' - Error: Session fingerprint changed (IP address or useragent) (IP: 127.0.0.1)
2016-11-26 11:59:30	admin	http://dripclubpw-ibrahimoff.c9users.io/pw-admin/login/edit/?id=1041&modal=1	Successful login for 'admin'
2016-11-26 12:00:17	?	?	User 'admin' - Error: Session fingerprint changed (IP address or useragent) (IP: 127.0.0.1)
2016-11-26 12:00:58	admin	http://dripclubaz/pw-admin/login/?id=1041	Successful login for 'admin'
2016-11-26 12:01:34	?	?	User 'admin' - Error: Session fingerprint changed (IP address or useragent) (IP: 127.0.0.1)
2016-11-26 12:03:38	admin	http://dripclubaz/pw-admin/login/?id=1041	Successful login for 'admin'
2016-11-26 12:03:43	?	?	User 'admin' - Error: Session fingerprint changed (IP address or useragent) (IP: 127.0.0.1)
2016-11-26 12:15:33	admin	http://dripclubaz/pw-admin/login/	Successful login for 'admin'
2016-11-26 12:16:12	?	?	User 'admin' - Error: Session fingerprint changed (IP address or useragent) (IP: 127.0.0.1)
