2016-11-17 15:53:59	Update #8: Completed!
2016-11-17 15:53:59	Update #9: Initializing update
2016-11-17 15:54:00	Update #9: Added: Pages > Recent
2016-11-17 15:54:00	Update #9: Completed!
2016-11-17 15:54:07	Update #10: Initializing update
2016-11-17 15:54:08	Update #10: Installed ProcessLogger and added: Setup > Logs
2016-11-17 15:54:08	Update #10: Installed InputfieldIcon
2016-11-17 15:54:08	Update #10: Completed!
2016-11-17 15:54:15	Update #11: Initializing update
2016-11-17 15:54:16	Update #11: Completed!
2016-11-17 15:54:16	Update #12: Initializing update
2016-11-17 15:54:16	Update #12: Added 'published' column to pages table
2016-11-17 15:54:16	Update #12: Populated values to 'published' for 53 pages
2016-11-17 15:54:16	Update #12: Completed!
2016-11-17 15:54:16	Update #13: Initializing update
2016-11-17 15:54:16	Update #13: Completed!
2016-11-17 15:54:20	Update #14: Initializing update
2016-11-17 15:54:20	Update #14: Completed!
2016-11-17 15:54:20	Update #15: Initializing update
2016-11-17 15:54:20	Update #15: Completed!
